Categories:Internet,Connectivity
License:GPL-3.0-only
Web Site:https://nextcloud.com/talk/
Source Code:https://github.com/nextcloud/talk-android
Issue Tracker:https://github.com/nextcloud/talk-android/issues
Changelog:https://github.com/nextcloud/talk-android/releases
Donate:https://www.bountysource.com/teams/nextcloud

Auto Name:Nextcloud Talk

Repo Type:git
Repo:https://github.com/nextcloud/talk-android.git

Build:1.1.0,30
    commit=v1.1.0
    subdir=app
    gradle=generic

Build:1.1.1,31
    commit=v1.1.1
    subdir=app
    gradle=generic

Build:1.1.3,33
    commit=v1.1.3
    subdir=app
    gradle=generic

Build:1.2.0,34
    commit=v1.2.0beta1
    subdir=app
    gradle=generic

Build:1.2.0beta2,35
    commit=v1.2.0beta2
    subdir=app
    gradle=generic

Build:1.2.0beta3,36
    commit=v1.2.0beta3
    subdir=app
    gradle=generic

Build:2.0.0,39
    commit=v2.0.0
    subdir=app
    gradle=generic

Build:2.0.1,42
    commit=v2.0.1
    subdir=app
    gradle=generic

Build:2.1.0beta1,44
    commit=v2.1.0beta1
    subdir=app
    gradle=generic

Build:2.1.0beta2,45
    commit=v2.1.0beta2
    subdir=app
    gradle=generic

Build:2.1.0beta3,46
    commit=v2.1.0beta3
    subdir=app
    gradle=generic

Build:2.1.0,49
    disable=failing build
    commit=v2.1.0
    subdir=app
    gradle=generic

Build:2.1.1,50
    disable=failing build
    commit=v2.1.1
    subdir=app
    gradle=generic

Build:2.1.2,51
    commit=v2.1.2
    subdir=app
    gradle=generic

Build:3.0.0beta3,54
    commit=v3.0.0beta3
    subdir=app
    gradle=generic
    rm=app/gplay.gradle

Build:3.0.0beta8,59
    commit=v3.0.0beta8
    subdir=app
    gradle=generic
    rm=app/gplay.gradle
    prebuild=sed -i -e '/work-firebase/d' build.gradle

Build:3.0.0beta10,61
    commit=v3.0.0beta10
    subdir=app
    gradle=generic
    rm=app/gplay.gradle
    prebuild=sed -i -e '/work-firebase/d' build.gradle

Build:3.0.0,62
    commit=v3.0.0
    subdir=app
    gradle=generic
    rm=app/gplay.gradle
    prebuild=sed -i -e '/work-firebase/d' build.gradle

Build:3.0.1,63
    commit=558b56518f25c39016c220a098805199bcdae2cd
    subdir=app
    gradle=generic
    rm=app/gplay.gradle
    prebuild=sed -i -e '/work-firebase/d' build.gradle

Build:3.1.0beta3,66
    commit=v3.1.0beta3
    subdir=app
    gradle=generic
    rm=app/gplay.gradle
    prebuild=sed -i -e '/work-firebase/d' build.gradle

Build:3.1.0beta6,69
    commit=v3.1.0beta6
    subdir=app
    gradle=generic
    rm=app/gplay.gradle
    prebuild=sed -i -e '/work-firebase/d' build.gradle

Build:3.1.0,70
    commit=v3.1.0
    subdir=app
    gradle=generic
    rm=app/gplay.gradle
    prebuild=sed -i -e '/work-firebase/d' build.gradle

Build:3.1.1,71
    commit=v3.1.1
    subdir=app
    gradle=generic
    rm=app/gplay.gradle
    prebuild=sed -i -e '/work-firebase/d' build.gradle

Build:3.1.2,72
    commit=v3.1.2
    subdir=app
    gradle=generic
    rm=app/gplay.gradle
    prebuild=sed -i -e '/work-firebase/d' build.gradle

Build:3.1.3,73
    commit=v3.1.3
    subdir=app
    gradle=generic
    rm=app/gplay.gradle
    prebuild=sed -i -e '/work-firebase/d' build.gradle

Build:3.2.0beta1,74
    commit=v3.2.0beta1
    subdir=app
    gradle=generic
    rm=app/gplay.gradle
    prebuild=sed -i -e '/work-firebase/d' build.gradle

Build:3.2.0beta4,77
    commit=v3.2.0beta4
    subdir=app
    gradle=generic
    rm=app/gplay.gradle
    prebuild=sed -i -e '/work-firebase/d' build.gradle

Build:3.2.0,79
    commit=v3.2.0
    subdir=app
    gradle=generic
    rm=app/gplay.gradle
    prebuild=sed -i -e '/work-firebase/d' build.gradle

Build:3.2.1,80
    commit=v3.2.1
    subdir=app
    gradle=generic
    rm=app/gplay.gradle
    prebuild=sed -i -e '/work-firebase/d' build.gradle

Build:3.2.3,82
    commit=v3.2.3
    subdir=app
    gradle=generic
    rm=app/gplay.gradle
    prebuild=sed -i -e '/work-firebase/d' build.gradle

Build:3.2.5,84
    commit=v3.2.5
    subdir=app
    gradle=generic
    rm=app/gplay.gradle
    prebuild=sed -i -e '/work-firebase/d' build.gradle

Build:3.2.6,85
    commit=v3.2.6
    subdir=app
    gradle=generic
    rm=app/gplay.gradle
    prebuild=sed -i -e '/work-firebase/d' build.gradle

Build:3.2.7,86
    commit=v3.2.7
    subdir=app
    gradle=generic
    rm=app/gplay.gradle
    prebuild=sed -i -e '/work-firebase/d' build.gradle

Archive Policy:5 versions
Auto Update Mode:Version v%v
Update Check Mode:Tags ^v[0-9]+\.[0-9]+\.[0-9]+$
Current Version:3.2.7
Current Version Code:86
